Data Cleaning Practice – Math221D Notebook
…
unique(real_estate$City)

[1] "REXBURG"    "SUGAR CITY" "MENAN"     

clean <- real_estate %>%
  filter(ListPrice > 2,
         ListPrice<1000000,
         Style == "1 Story",
         Elementary != "MISSING",
         City == "REXBURG") %>%
  select(ListPrice, Style, Elementary, City, IsFixerUpper)

clean

# A tibble: 70 × 5
   ListPrice Style   Elementary City    IsFixerUpper
       <dbl> <chr>   <chr>      <chr>   <chr>       
 1    319000 1 Story ARCHER     REXBURG No          
 2    445000 1 Story HIBBARD    REXBURG No          
 3    274000 1 Story ADAMS      REXBURG No          
 4    119900 1 Story ADAMS      REXBURG No          
 5    219900 1 Story LINCOLN    REXBURG No          
 6    149900 1 Story KENNEDY    REXBURG No          
 7    279000 1 Story ADAMS      REXBURG No          
 8    189900 1 Story LYMAN      REXBURG No          
 9    305000 1 Story ADAMS      REXBURG No          
10    184500 1 Story SOUTH      REXBURG No          
# ℹ 60 more rows
…
